aniso8601==9.0.1
attrs==23.2.0
blinker==1.7.0
click==8.1.7
colorama==0.4.6
Flask==3.0.2
flask-restx==1.3.0
Flask-SQLAlchemy==3.1.1
greenlet==3.0.3
importlib_resources==6.3.0
itsdangerous==2.1.2
Jinja2==3.1.3
jsonschema==4.21.1
jsonschema-specifications==2023.12.1
MarkupSafe==2.1.5
python-dotenv==1.0.1
pytz==2024.1
referencing==0.33.0
rpds-py==0.18.0
SQLAlchemy==2.0.28
typing_extensions==4.10.0
Werkzeug==3.0.1
